{
	"count": 127,
	"next": "https://172.16.2.201/api/investigation/all?ordering=-start_date&page=2&page_size=15&start_date=week",
	"previous": null,
	"results": [
		{
			"id": 17,
			"names": [
				"User Initiated - Endpoint Investigation"
			],
			"start_date": "2017-02-13T09:46:02.284385Z",
			"end_date": null,
			"affected_hosts": [
				"WIN10-X86.auto.lab",
				"YOSSI-PC.domains.lab",
				"Asdfdsfdsfdsfsdfsdf.auto.lab",
				"sdfsdf0-=23232323r3243.auto.lab",
				"234823fdsfdsdsfsd.auto.lab",
				"aSDFDSFSDFSDF__asdfdsfsd.auto.lab"
			],
			"affected_groups": [
				"New Group"
			],
			"affected_users": [
				"AUTO\\bingo",
				"AUTO\\max-admin"
			],
			"total_actions": 7,
			"remediation_actions": [],
			"failed_actions": [],
			"last_action": {
				"details": "List all drivers installed on (New Group)WIN10-X86@2.0.0.8.",
				"is_remediation": false,
				"id": 433,
				"name": "Get Driver List"
			},
			"important": true,
			"detection_system": 66,
			"error_description": "",
			"status": 0,
			"user": "",
			"comments": 0,
			"threat_types": [],
			"running_time": 43.462507,
			"host_groups": [
				"New Group"
			],
			"requested_status": null,
			"reasons": null,
			"created_by": [
				"administrator"
			],
			"is_cleanup_applied": false
		},
		{
			"id": 16,
			"names": [
				"User Initiated - Suspicious User Logon"
			],
			"start_date": "2017-02-13T09:23:52.902470Z",
			"end_date": null,
			"affected_hosts": [],
			"affected_groups": [],
			"affected_users": [],
			"total_actions": 2,
			"remediation_actions": [],
			"failed_actions": [],
			"last_action": {
				"details": "Ask for approval to start investigations on [(u'Win10-x86.Auto.Lab', '2.0.0.8'), (u'win8-x86.Auto.Lab', '2.0.0.14'), (u'win81-x64.Auto.Lab', '2.0.0.3'), (u'win10-x64.Auto.Lab', '2.0.0.12')]",
				"is_remediation": false,
				"id": 426,
				"name": "Start investigation on multiple endpoints"
			},
			"important": false,
			"detection_system": 44,
			"error_description": "",
			"status": 2,
			"user": "",
			"comments": 0,
			"threat_types": [],
			"running_time": 1372.94382,
			"host_groups": [],
			"requested_status": null,
			"reasons": null,
			"created_by": [
				"administrator"
			],
			"is_cleanup_applied": false
		},
		{
			"id": 18,
			"names": [
				"User Initiated - Endpoint Investigation"
			],
			"start_date": "2017-04-12T08:24:00.243260Z",
			"end_date": null,
			"affected_hosts": [
				"YOSSI-TEST.domains.lab"
			],
			"affected_groups": [
				null
			],
			"affected_users": [],
			"total_actions": 2,
			"remediation_actions": [],
			"failed_actions": [],
			"last_action": {
				"details": "Check if is covered YOSSI-TEST.aaa",
				"is_remediation": false,
				"id": 871,
				"name": "Check Endpoint Coverage"
			},
			"important": false,
			"detection_system": 14,
			"error_description": "(None)YOSSI-TEST@None is not found in Active Directory,Endpoint YOSSI-TEST NOT found in DNS",
			"status": 2,
			"user": "",
			"number_of_comments": 0,
			"threat_types": null,
			"running_time": 871.02117,
			"host_groups": [
				null
			],
			"requested_status": null,
			"external_sources": [
				13
			],
			"reasons": [
				"Endpoint does not exist in the Active Directory"
			],
			"created_by": [
				"administrator"
			],
			"tags": [],
			"is_cleanup_applied": false
		},
		{
			"id": 15,
			"names": [
				"User Initiated - Endpoint Investigation"
			],
			"start_date": "2017-02-13T09:22:23.215976Z",
			"end_date": "2017-02-13T09:22:35.396399Z",
			"affected_hosts": [
				"BINGO.domains.lab"
			],
			"affected_groups": [
				null
			],
			"affected_users": [],
			"total_actions": 2,
			"remediation_actions": [],
			"failed_actions": [],
			"last_action": {
				"details": "Check if bingo is covered.",
				"is_remediation": false,
				"id": 424,
				"name": "Check Endpoint Coverage"
			},
			"important": false,
			"detection_system": 44,
			"error_description": "",
			"status": 4,
			"user": "administrator",
			"comments": 1,
			"threat_types": [],
			"running_time": 12.180423,
			"host_groups": [
				null
			],
			"requested_status": 4,
			"reasons": [
				"The investigation is malfunctioning"
			],
			"created_by": [
				"administrator"
			],
			"is_cleanup_applied": false
		},
		{
			"id": 14,
			"names": [
				"Bay Dynamics Suspicious User Critical"
			],
			"start_date": "2017-02-12T07:06:24.868210Z",
			"end_date": "2017-02-12T07:11:27.054782Z",
			"affected_hosts": [],
			"affected_groups": [],
			"affected_users": [],
			"total_actions": 1,
			"remediation_actions": [],
			"failed_actions": [],
			"last_action": {
				"details": "Ask for approval for DLP investigation for user [u'lateral']",
				"is_remediation": false,
				"id": 422,
				"name": "Initiate DLP Investigation"
			},
			"important": false,
			"detection_system": 65,
			"error_description": "External Source product Limit User Privileges is not defined,Missing service source Limit User Privileges, can not run the DLP investigation",
			"status": 1,
			"user": "",
			"comments": 1,
			"threat_types": [],
			"running_time": 302.186572,
			"host_groups": [],
			"requested_status": null,
			"reasons": [
				"External source is not defined",
				"Pending action exceeded timeout"
			],
			"created_by": [
				null
			],
			"is_cleanup_applied": false
		},
		{
			"id": 9,
			"names": [
				"User Initiated - Endpoint Investigation"
			],
			"start_date": "2017-02-09T09:27:54.326390Z",
			"end_date": "2017-02-09T09:48:31.120821Z",
			"affected_hosts": [
				"WIN7-ULT-X86.domains.lab"
			],
			"affected_groups": [
				"New Group"
			],
			"affected_users": [
				"AUTO\\bingo",
				"AUTO\\lateral"
			],
			"total_actions": 29,
			"remediation_actions": [
				{
					"details": "Quarantine \"c:\\users\\bingo\\desktop\\trojan.exe\".",
					"id": 275,
					"name": "Quarantine a File"
				}
			],
			"failed_actions": [],
			"last_action": {
				"details": "Waits for (New Group)WIN7-ULT-X86@2.0.0.22 resource.",
				"is_remediation": false,
				"id": 276,
				"name": "Wait for Endpoint Resource"
			},
			"important": false,
			"detection_system": 44,
			"error_description": "Error reaching network endpoint (New Group)WIN7-ULT-X86@2.0.0.22 ,[Errno Connection error (2.0.0.22:445)] [Errno 113] No route to host",
			"status": 3,
			"user": "",
			"comments": 1,
			"threat_types": [
				0
			],
			"running_time": 1236.794431,
			"host_groups": [
				"New Group"
			],
			"requested_status": null,
			"reasons": [
				"Pending action exceeded timeout",
				"Endpoint is not reachable"
			],
			"created_by": [
				"administrator"
			],
			"is_cleanup_applied": false
		},
		{
			"id": 3,
			"names": [
				"User Initiated - Endpoint Investigation"
			],
			"start_date": "2017-02-08T14:27:18.300693Z",
			"end_date": "2017-02-08T14:33:42.445535Z",
			"affected_hosts": [
				"WIN7-ULT-X86.domains.lab"
			],
			"affected_groups": [
				"New Group"
			],
			"affected_users": [
				"AUTO\\bingo",
				"AUTO\\lateral"
			],
			"total_actions": 115,
			"remediation_actions": [
				{
					"details": "Quarantine \"c:\\users\\bingo\\downloads\\malwares\\malwares\\exploit.exe\".",
					"id": 157,
					"name": "Quarantine a File"
				},
				{
					"details": "Quarantine \"c:\\users\\bingo\\downloads\\malwares\\malwares\\rootkit.exe\".",
					"id": 155,
					"name": "Quarantine a File"
				},
				{
					"details": "Quarantine \"c:\\users\\bingo\\downloads\\malwares\\malwares\\hoax.exe\".",
					"id": 114,
					"name": "Quarantine a File"
				},
				{
					"details": "Quarantine \"c:\\users\\bingo\\downloads\\malwares\\malwares\\adware.exe\".",
					"id": 113,
					"name": "Quarantine a File"
				},
				{
					"details": "Quarantine \"c:\\users\\bingo\\downloads\\malwares\\malwares\\יוניקוד.exe\".",
					"id": 108,
					"name": "Quarantine a File"
				},
				{
					"details": "Quarantine \"c:\\users\\bingo\\downloads\\malwares\\malwares\\trojan.exe\".",
					"id": 100,
					"name": "Quarantine a File"
				},
				{
					"details": "Quarantine \"c:\\users\\bingo\\downloads\\malwares\\malwares\\new_mal.exe\".",
					"id": 104,
					"name": "Quarantine a File"
				},
				{
					"details": "Quarantine \"c:\\users\\bingo\\downloads\\malwares\\malwares\\heuristic.exe\".",
					"id": 103,
					"name": "Quarantine a File"
				},
				{
					"details": "Quarantine \"c:\\users\\bingo\\downloads\\malwares\\malwares\\generic.exe\".",
					"id": 110,
					"name": "Quarantine a File"
				},
				{
					"details": "Quarantine \"c:\\users\\bingo\\downloads\\malwares\\malwares\\worm.exe\".",
					"id": 106,
					"name": "Quarantine a File"
				}
			],
			"failed_actions": [],
			"last_action": {
				"details": "Wait on a complete report for 6d192dc5e1a3c539b1f302fb9f896ffdb688be3e.",
				"is_remediation": false,
				"id": 159,
				"name": "Wait for Cloud Analysis Report"
			},
			"important": false,
			"detection_system": 44,
			"error_description": "",
			"status": 6,
			"user": "",
			"comments": 10,
			"threat_types": [
				0,
				1
			],
			"running_time": 384.144842,
			"host_groups": [
				"New Group"
			],
			"requested_status": null,
			"reasons": null,
			"created_by": [
				"administrator"
			],
			"is_cleanup_applied": false
		}
	]
}
