{
	"count": 52,
	"next": "http://172.110.0.200:8080/api/investigations/5/entities?page=2&type_id=2",
	"previous": null,
	"results": [
		{
			"name": "lsm.exe",
			"pid": 532,
			"entity_status": 1,
			"host": "WIN7-ULT-X86.auto.lab",
			"id": 5960
		},
		{
			"name": "cmd.exe",
			"pid": 3716,
			"entity_status": 1,
			"host": "WIN7-ULT-X86.auto.lab",
			"id": 5930
		},
		{
			"name": "dwm.exe",
			"pid": 3412,
			"entity_status": 1,
			"host": "WIN7-ULT-X86.auto.lab",
			"id": 5914
		},
		{
			"name": "cmd.exe",
			"pid": 3708,
			"entity_status": 1,
			"host": "WIN7-ULT-X86.auto.lab",
			"id": 5909
		},
		{
			"name": "conhost.exe",
			"pid": 1488,
			"entity_status": 1,
			"host": "WIN7-ULT-X86.auto.lab",
			"id": 5897
		},
		{
			"name": "winlogon.exe",
			"pid": 464,
			"entity_status": 1,
			"host": "WIN7-ULT-X86.auto.lab",
			"id": 5893
		},
		{
			"name": "MiniMalware3.exe",
			"pid": 2012,
			"entity_status": 4,
			"host": "WIN7-ULT-X86.auto.lab",
			"id": 5888
		},
		{
			"name": "taskhost.exe",
			"pid": 2692,
			"entity_status": 1,
			"host": "WIN7-ULT-X86.auto.lab",
			"id": 5864
		},
		{
			"name": "MiniMalware2.exe",
			"pid": 2852,
			"entity_status": 1,
			"host": "WIN7-ULT-X86.auto.lab",
			"id": 5859
		},
		{
			"name": "iexplore.exe",
			"pid": 1136,
			"entity_status": 1,
			"host": "WIN7-ULT-X86.auto.lab",
			"id": 5812
		}
	]
}
