{
	"count": 55,
	"next": "https://172.2.0.200/api/investigation/all?status=8&perPage=10&page=2",
	"previous": null,
	"results": [
		{
			"id": 139,
			"name": "Symantec Virus Found syslog",
			"start_date": "2015-04-21T14:52:35.459Z",
			"end_date": "2015-04-21T14:56:49.977Z",
			"affected_hosts": ["WIN7-ULT-X86.auto.lab"],
			"affected_groups": [""],
			"affected_users": ["AUTO\\Administrator"],
			"total_actions": 36,
			"remediation_actions": [
				{
					"details": "Quarantine \"C:\\temp\\file in space.exe\" with passphrase:None.",
					"id": 3519,
					"name": "Quarantine A File"
				},
				{
					"details": "Terminate(kill) process name:\"file in space.exe\" pid:3212.",
					"id": 3518,
					"name": "Kill Process"
				},
				{
					"details": "Release \"C:\\temp\\file in space.exe\" from process name:\"file in space.exe\" pid:3212.",
					"id": 3516,
					"name": "Release File Handle"
				},
				{
					"details": "Quarantine \"C:\\temp\\file in space.exe\" with passphrase:None.",
					"id": 3514,
					"name": "Quarantine A File"
				}
			],
			"pending_actions": [],
			"failed_actions": [
				{
					"details": "Release \"C:\\temp\\file in space.exe\" from process name:\"file in space.exe\" pid:3212.",
					"id": 3516,
					"name": "Release File Handle"
				},
				{
					"details": "Quarantine \"C:\\temp\\file in space.exe\" with passphrase:None.",
					"id": 3514,
					"name": "Quarantine A File"
				}
			],
			"last_action": {
				"details": "Analyzing 691 files using AIRS Cloud srvice.",
				"is_remediation": false,
				"id": 3541,
				"name": "Analyze Multiple Files"
			},
			"important": false,
			"detection_system": "e2e",
			"error_description": "",
			"status": 8
		},
		{
			"id": 138,
			"name": "Symantec Virus Found syslog",
			"start_date": "2015-04-21T14:47:37.565Z",
			"end_date": "2015-04-21T14:52:30.475Z",
			"affected_hosts": ["WIN7-ULT-X86.auto.lab"],
			"affected_groups": [""],
			"affected_users": ["AUTO\\Administrator"],
			"total_actions": 36,
			"remediation_actions": [
				{
					"details": "Quarantine \"C:\\temp\\3.exe\" with passphrase:None.",
					"id": 3483,
					"name": "Quarantine A File"
				},
				{
					"details": "Terminate(kill) process name:\"3.exe\" pid:3616.",
					"id": 3482,
					"name": "Kill Process"
				},
				{
					"details": "Release \"C:\\temp\\3.exe\" from process name:\"3.exe\" pid:3616.",
					"id": 3480,
					"name": "Release File Handle"
				},
				{
					"details": "Quarantine \"C:\\temp\\3.exe\" with passphrase:None.",
					"id": 3478,
					"name": "Quarantine A File"
				}
			],
			"pending_actions": [],
			"failed_actions": [
				{
					"details": "Release \"C:\\temp\\3.exe\" from process name:\"3.exe\" pid:3616.",
					"id": 3480,
					"name": "Release File Handle"
				},
				{
					"details": "Quarantine \"C:\\temp\\3.exe\" with passphrase:None.",
					"id": 3478,
					"name": "Quarantine A File"
				}
			],
			"last_action": {
				"details": "Checks that file C:\\Windows\\System32\\drivers\\etc\\hosts status \"not_found\" requires quarantine.",
				"is_remediation": false,
				"id": 3505,
				"name": "Decide On File Quarantine"
			},
			"important": false,
			"detection_system": "e2e",
			"error_description": "",
			"status": 8
		},
		{
			"id": 137,
			"name": "Symantec Virus Found syslog",
			"start_date": "2015-04-21T14:35:05.593Z",
			"end_date": "2015-04-21T14:47:30.436Z",
			"affected_hosts": ["WIN7-ULT-X86.auto.lab"],
			"affected_groups": [""],
			"affected_users": ["AUTO\\Administrator"],
			"total_actions": 49,
			"remediation_actions": [
				{
					"details": "Quarantine \"c:\\temp\\evil.exe\" with passphrase:None.",
					"id": 3468,
					"name": "Quarantine A File"
				},
				{
					"details": "Terminate(kill) process name:\"evil.exe\" pid:3892.",
					"id": 3467,
					"name": "Kill Process"
				},
				{
					"details": "Release \"c:\\temp\\evil.exe\" from process name:\"evil.exe\" pid:3892.",
					"id": 3465,
					"name": "Release File Handle"
				},
				{
					"details": "Quarantine \"c:\\temp\\evil.exe\" with passphrase:None.",
					"id": 3463,
					"name": "Quarantine A File"
				},
				{
					"details": "Quarantine \"C:\\temp\\1.exe\" with passphrase:None.",
					"id": 3434,
					"name": "Quarantine A File"
				},
				{
					"details": "Terminate(kill) process name:\"1.exe\" pid:2168.",
					"id": 3433,
					"name": "Kill Process"
				},
				{
					"details": "Release \"C:\\temp\\1.exe\" from process name:\"1.exe\" pid:2168.",
					"id": 3431,
					"name": "Release File Handle"
				},
				{
					"details": "Quarantine \"C:\\temp\\1.exe\" with passphrase:None.",
					"id": 3429,
					"name": "Quarantine A File"
				}
			],
			"pending_actions": [],
			"failed_actions": [
				{
					"details": "Release \"c:\\temp\\evil.exe\" from process name:\"evil.exe\" pid:3892.",
					"id": 3465,
					"name": "Release File Handle"
				},
				{
					"details": "Quarantine \"c:\\temp\\evil.exe\" with passphrase:None.",
					"id": 3463,
					"name": "Quarantine A File"
				},
				{
					"details": "Release \"C:\\temp\\1.exe\" from process name:\"1.exe\" pid:2168.",
					"id": 3431,
					"name": "Release File Handle"
				},
				{
					"details": "Quarantine \"C:\\temp\\1.exe\" with passphrase:None.",
					"id": 3429,
					"name": "Quarantine A File"
				}
			],
			"last_action": {
				"details": "Wait on a complete report for [u'e783eb65b6bffeb2b276a0fc5731c18d', u'0f0fbd2f2d0bc9f0c86709e1396d9679a284204e'].",
				"is_remediation": false,
				"id": 3469,
				"name": "Wait For Cloud Analysis Report"
			},
			"important": false,
			"detection_system": "e2e",
			"error_description": "",
			"status": 8
		},
		{
			"id": 136,
			"name": "Symantec Virus Found syslog",
			"start_date": "2015-04-21T14:30:36.129Z",
			"end_date": "2015-04-21T14:34:58.120Z",
			"affected_hosts": ["WIN7-ULT-X86.auto.lab"],
			"affected_groups": [""],
			"affected_users": ["AUTO\\Administrator"],
			"total_actions": 36,
			"remediation_actions": [
				{
					"details": "Quarantine \"C:\\temp\\2.exe\" with passphrase:None.",
					"id": 3398,
					"name": "Quarantine A File"
				},
				{
					"details": "Terminate(kill) process name:\"2.exe\" pid:996.",
					"id": 3397,
					"name": "Kill Process"
				},
				{
					"details": "Release \"C:\\temp\\2.exe\" from process name:\"2.exe\" pid:996.",
					"id": 3395,
					"name": "Release File Handle"
				},
				{
					"details": "Quarantine \"C:\\temp\\2.exe\" with passphrase:None.",
					"id": 3393,
					"name": "Quarantine A File"
				}
			],
			"pending_actions": [],
			"failed_actions": [
				{
					"details": "Release \"C:\\temp\\2.exe\" from process name:\"2.exe\" pid:996.",
					"id": 3395,
					"name": "Release File Handle"
				},
				{
					"details": "Quarantine \"C:\\temp\\2.exe\" with passphrase:None.",
					"id": 3393,
					"name": "Quarantine A File"
				}
			],
			"last_action": {
				"details": "Analyzing 691 files using AIRS Cloud srvice.",
				"is_remediation": false,
				"id": 3420,
				"name": "Analyze Multiple Files"
			},
			"important": false,
			"detection_system": "e2e",
			"error_description": "",
			"status": 8
		},
		{
			"id": 134,
			"name": "McAfee Abnormal Host Behavior",
			"start_date": "2015-04-21T14:24:07.281Z",
			"end_date": "2015-04-21T14:28:36.134Z",
			"affected_hosts": ["WIN7-ULT-X86.auto.lab"],
			"affected_groups": [""],
			"affected_users": ["AUTO\\Administrator"],
			"total_actions": 33,
			"remediation_actions": [
				{
					"details": "Quarantine \"c:\\windows\\system32\\z5eqa8h9.exe\" with passphrase:None.",
					"id": 3359,
					"name": "Quarantine A File"
				},
				{
					"details": "Terminate(kill) process name:\"z5eQA8h9.exe\" pid:3576.",
					"id": 3358,
					"name": "Kill Process"
				},
				{
					"details": "Release \"c:\\windows\\system32\\z5eqa8h9.exe\" from process name:\"z5eQA8h9.exe\" pid:3576.",
					"id": 3356,
					"name": "Release File Handle"
				},
				{
					"details": "Quarantine \"c:\\windows\\system32\\z5eqa8h9.exe\" with passphrase:None.",
					"id": 3354,
					"name": "Quarantine A File"
				},
				{
					"details": "Quarantine 1 files in directory \"c:\\windows\\system32\".",
					"id": 3350,
					"name": "Quarantine Files In Directory"
				}
			],
			"pending_actions": [],
			"failed_actions": [
				{
					"details": "Release \"c:\\windows\\system32\\z5eqa8h9.exe\" from process name:\"z5eQA8h9.exe\" pid:3576.",
					"id": 3356,
					"name": "Release File Handle"
				},
				{
					"details": "Quarantine \"c:\\windows\\system32\\z5eqa8h9.exe\" with passphrase:None.",
					"id": 3354,
					"name": "Quarantine A File"
				}
			],
			"last_action": {
				"details": "Checks that file C:\\Windows\\System32\\drivers\\etc\\hosts status \"not_found\" requires quarantine.",
				"is_remediation": false,
				"id": 3368,
				"name": "Decide On File Quarantine"
			},
			"important": false,
			"detection_system": "e2e",
			"error_description": "",
			"status": 8
		},
		{
			"id": 133,
			"name": "McAfee Endpoint Security Tampered",
			"start_date": "2015-04-21T14:19:36.188Z",
			"end_date": "2015-04-21T14:24:03.604Z",
			"affected_hosts": ["WIN7-ULT-X86.auto.lab"],
			"affected_groups": [""],
			"affected_users": ["AUTO\\Administrator"],
			"total_actions": 33,
			"remediation_actions": [
				{
					"details": "Quarantine \"c:\\users\\administrator\\eq58r9.exe\" with passphrase:None.",
					"id": 3326,
					"name": "Quarantine A File"
				},
				{
					"details": "Terminate(kill) process name:\"eQ58r9.exe\" pid:3580.",
					"id": 3325,
					"name": "Kill Process"
				},
				{
					"details": "Release \"c:\\users\\administrator\\eq58r9.exe\" from process name:\"eQ58r9.exe\" pid:3580.",
					"id": 3323,
					"name": "Release File Handle"
				},
				{
					"details": "Quarantine \"c:\\users\\administrator\\eq58r9.exe\" with passphrase:None.",
					"id": 3321,
					"name": "Quarantine A File"
				},
				{
					"details": "Quarantine 1 files in directory \"c:\\users\\administrator\".",
					"id": 3317,
					"name": "Quarantine Files In Directory"
				}
			],
			"pending_actions": [],
			"failed_actions": [
				{
					"details": "Release \"c:\\users\\administrator\\eq58r9.exe\" from process name:\"eQ58r9.exe\" pid:3580.",
					"id": 3323,
					"name": "Release File Handle"
				},
				{
					"details": "Quarantine \"c:\\users\\administrator\\eq58r9.exe\" with passphrase:None.",
					"id": 3321,
					"name": "Quarantine A File"
				}
			],
			"last_action": {
				"details": "Checks that file C:\\Windows\\System32\\drivers\\etc\\hosts status \"not_found\" requires quarantine.",
				"is_remediation": false,
				"id": 3335,
				"name": "Decide On File Quarantine"
			},
			"important": false,
			"detection_system": "e2e",
			"error_description": "",
			"status": 8
		},
		{
			"id": 132,
			"name": "McAfee Port Blocking",
			"start_date": "2015-04-21T14:14:57.699Z",
			"end_date": "2015-04-21T14:19:31.811Z",
			"affected_hosts": ["WIN7-ULT-X86.auto.lab"],
			"affected_groups": [""],
			"affected_users": ["AUTO\\Administrator"],
			"total_actions": 33,
			"remediation_actions": [
				{
					"details": "Quarantine \"c:\\windows\\sus.exe\" with passphrase:None.",
					"id": 3293,
					"name": "Quarantine A File"
				},
				{
					"details": "Terminate(kill) process name:\"sus.exe\" pid:2920.",
					"id": 3292,
					"name": "Kill Process"
				},
				{
					"details": "Release \"c:\\windows\\sus.exe\" from process name:\"sus.exe\" pid:2920.",
					"id": 3290,
					"name": "Release File Handle"
				},
				{
					"details": "Quarantine \"c:\\windows\\sus.exe\" with passphrase:None.",
					"id": 3288,
					"name": "Quarantine A File"
				},
				{
					"details": "Quarantine 1 files in directory \"c:\\windows\".",
					"id": 3284,
					"name": "Quarantine Files In Directory"
				}
			],
			"pending_actions": [],
			"failed_actions": [
				{
					"details": "Release \"c:\\windows\\sus.exe\" from process name:\"sus.exe\" pid:2920.",
					"id": 3290,
					"name": "Release File Handle"
				},
				{
					"details": "Quarantine \"c:\\windows\\sus.exe\" with passphrase:None.",
					"id": 3288,
					"name": "Quarantine A File"
				}
			],
			"last_action": {
				"details": "Checks that file C:\\Windows\\System32\\drivers\\etc\\hosts status \"not_found\" requires quarantine.",
				"is_remediation": false,
				"id": 3302,
				"name": "Decide On File Quarantine"
			},
			"important": false,
			"detection_system": "e2e",
			"error_description": "",
			"status": 8
		},
		{
			"id": 130,
			"name": "Symantec Virus Found syslog",
			"start_date": "2015-04-21T13:11:02.515Z",
			"end_date": "2015-04-21T13:15:31.154Z",
			"affected_hosts": ["WIN7-ULT-X86.auto.lab"],
			"affected_groups": [""],
			"affected_users": ["AUTO\\Administrator"],
			"total_actions": 36,
			"remediation_actions": [
				{
					"details": "Quarantine \"C:\\temp\\3.exe\" with passphrase:None.",
					"id": 3211,
					"name": "Quarantine A File"
				},
				{
					"details": "Terminate(kill) process name:\"3.exe\" pid:1520.",
					"id": 3210,
					"name": "Kill Process"
				},
				{
					"details": "Release \"C:\\temp\\3.exe\" from process name:\"3.exe\" pid:1520.",
					"id": 3208,
					"name": "Release File Handle"
				},
				{
					"details": "Quarantine \"C:\\temp\\3.exe\" with passphrase:None.",
					"id": 3206,
					"name": "Quarantine A File"
				}
			],
			"pending_actions": [],
			"failed_actions": [
				{
					"details": "Release \"C:\\temp\\3.exe\" from process name:\"3.exe\" pid:1520.",
					"id": 3208,
					"name": "Release File Handle"
				},
				{
					"details": "Quarantine \"C:\\temp\\3.exe\" with passphrase:None.",
					"id": 3206,
					"name": "Quarantine A File"
				}
			],
			"last_action": {
				"details": "Checks that file C:\\Windows\\System32\\drivers\\etc\\hosts status \"not_found\" requires quarantine.",
				"is_remediation": false,
				"id": 3233,
				"name": "Decide On File Quarantine"
			},
			"important": false,
			"detection_system": "e2e",
			"error_description": "",
			"status": 8
		},
		{
			"id": 129,
			"name": "Symantec Virus Found syslog",
			"start_date": "2015-04-21T13:02:50.327Z",
			"end_date": "2015-04-21T13:10:55.130Z",
			"affected_hosts": ["WIN7-ULT-X86.auto.lab"],
			"affected_groups": [""],
			"affected_users": ["AUTO\\Administrator"],
			"total_actions": 49,
			"remediation_actions": [
				{
					"details": "Quarantine \"c:\\temp\\evil.exe\" with passphrase:None.",
					"id": 3196,
					"name": "Quarantine A File"
				},
				{
					"details": "Terminate(kill) process name:\"evil.exe\" pid:3796.",
					"id": 3195,
					"name": "Kill Process"
				},
				{
					"details": "Release \"c:\\temp\\evil.exe\" from process name:\"evil.exe\" pid:3796.",
					"id": 3193,
					"name": "Release File Handle"
				},
				{
					"details": "Quarantine \"c:\\temp\\evil.exe\" with passphrase:None.",
					"id": 3191,
					"name": "Quarantine A File"
				},
				{
					"details": "Quarantine \"C:\\temp\\1.exe\" with passphrase:None.",
					"id": 3162,
					"name": "Quarantine A File"
				},
				{
					"details": "Terminate(kill) process name:\"1.exe\" pid:2140.",
					"id": 3161,
					"name": "Kill Process"
				},
				{
					"details": "Release \"C:\\temp\\1.exe\" from process name:\"1.exe\" pid:2140.",
					"id": 3159,
					"name": "Release File Handle"
				},
				{
					"details": "Quarantine \"C:\\temp\\1.exe\" with passphrase:None.",
					"id": 3157,
					"name": "Quarantine A File"
				}
			],
			"pending_actions": [],
			"failed_actions": [
				{
					"details": "Release \"c:\\temp\\evil.exe\" from process name:\"evil.exe\" pid:3796.",
					"id": 3193,
					"name": "Release File Handle"
				},
				{
					"details": "Quarantine \"c:\\temp\\evil.exe\" with passphrase:None.",
					"id": 3191,
					"name": "Quarantine A File"
				},
				{
					"details": "Release \"C:\\temp\\1.exe\" from process name:\"1.exe\" pid:2140.",
					"id": 3159,
					"name": "Release File Handle"
				},
				{
					"details": "Quarantine \"C:\\temp\\1.exe\" with passphrase:None.",
					"id": 3157,
					"name": "Quarantine A File"
				}
			],
			"last_action": {
				"details": "Wait on a complete report for [u'8b77c7cfcdf6588f65dcccf37891e4fc', u'5b4492aaf05640e1364897d41bb09b54bbcb44c4'].",
				"is_remediation": false,
				"id": 3197,
				"name": "Wait For Cloud Analysis Report"
			},
			"important": false,
			"detection_system": "e2e",
			"error_description": "",
			"status": 8
		},
		{
			"id": 128,
			"name": "Symantec Virus Found syslog",
			"start_date": "2015-04-21T12:58:08.365Z",
			"end_date": "2015-04-21T13:02:43.200Z",
			"affected_hosts": ["WIN7-ULT-X86.auto.lab"],
			"affected_groups": [""],
			"affected_users": ["AUTO\\Administrator"],
			"total_actions": 36,
			"remediation_actions": [
				{
					"details": "Quarantine \"C:\\temp\\2.exe\" with passphrase:None.",
					"id": 3126,
					"name": "Quarantine A File"
				},
				{
					"details": "Terminate(kill) process name:\"2.exe\" pid:1984.",
					"id": 3125,
					"name": "Kill Process"
				},
				{
					"details": "Release \"C:\\temp\\2.exe\" from process name:\"2.exe\" pid:1984.",
					"id": 3123,
					"name": "Release File Handle"
				},
				{
					"details": "Quarantine \"C:\\temp\\2.exe\" with passphrase:None.",
					"id": 3121,
					"name": "Quarantine A File"
				}
			],
			"pending_actions": [],
			"failed_actions": [
				{
					"details": "Release \"C:\\temp\\2.exe\" from process name:\"2.exe\" pid:1984.",
					"id": 3123,
					"name": "Release File Handle"
				},
				{
					"details": "Quarantine \"C:\\temp\\2.exe\" with passphrase:None.",
					"id": 3121,
					"name": "Quarantine A File"
				}
			],
			"last_action": {
				"details": "Analyzing 694 files using AIRS Cloud srvice.",
				"is_remediation": false,
				"id": 3148,
				"name": "Analyze Multiple Files"
			},
			"important": false,
			"detection_system": "e2e",
			"error_description": "",
			"status": 8
		}
	]
}
